Loop Is Poop
…
df = read_csv('./data/IL_demographics.csv')

Rows: 1397 Columns: 17
── Column specification ────────────────────────────────────────────────────────
Delimiter: ","
chr  (1): GEOID
dbl (16): poptotal, gender_male, gender_female, age_0to4, age_5to9, age_10to...

ℹ Use `spec()` to retrieve the full column specification for this data.
ℹ Specify the column types or set `show_col_types = FALSE` to quiet this message.

df

# A tibble: 1,397 × 17
   GEOID popto…¹ gende…² gende…³ age_0…⁴ age_5…⁵ age_1…⁶ age_1…⁷ age_2…⁸ age_2…⁹
   <chr>   <dbl>   <dbl>   <dbl>   <dbl>   <dbl>   <dbl>   <dbl>   <dbl>   <dbl>
 1 860Z…   24257   12063   12194    1120    1272    1637    2048    1321    2607
 2 860Z…   52344   25624   26720    3419    3552    3446    3016    1890    5534
 3 860Z…   29622   15024   14598    1866    1745    2096    1559     667    3490
 4 860Z…   33048   15875   17173    1600    2121    2336    1898    1271    3516
 5 860Z…   23191   11742   11449    1889    1163    1362    1066    1320    3714
 6 860Z…   47130   23127   24003    1925    3443    3769    3924    1654    2489
 7 860Z…   11712    5648    6064     441     670     983    1078     535     921
 8 860Z…   26689   13431   13258    1260    1235    2236    2100    1547    2943
 9 860Z…   47612   24283   23329    2180    3347    4055    3502    2777    4126
10 860Z…   27671   13791   13880    1315    2011    1883    1906    1714    2229
# … with 1,387 more rows, 7 more variables: age_35to44 <dbl>, age_45to54 <dbl>,
#   age_55to59 <dbl>, age_60to64 <dbl>, age_65to74 <dbl>, age_75to84 <dbl>,
#   age_85plus <dbl>, and abbreviated variable names ¹​poptotal, ²​gender_male,
#   ³​gender_female, ⁴​age_0to4, ⁵​age_5to9, ⁶​age_10to14, ⁷​age_15to19,
#   ⁸​age_20to24, ⁹​age_25to34
…
You could add the strings to a vector column_names and loop through the process, but NO LOOPS! You could also do it by numeric index (either by looping or with some trickery), but that is bad practice as any changes to the column order could mess up your data.

With tidyverse, this can be accomplished with little fuss. In mutate() and dplyr (the subpackage of tidyverse to which mutate() belongs) functions, the ~ you see in the specification allows us to pass a formula/function. Additionally, .x is how to refer to the selected columns within dplyr functions.

df_new = df %>%
    mutate(across(
        .cols = gender_male:age_85plus,
        .fns = ~ .x/poptotal
    ))

df_new

# A tibble: 1,397 × 17
   GEOID popto…¹ gende…² gende…³ age_0…⁴ age_5…⁵ age_1…⁶ age_1…⁷ age_2…⁸ age_2…⁹
   <chr>   <dbl>   <dbl>   <dbl>   <dbl>   <dbl>   <dbl>   <dbl>   <dbl>   <dbl>
 1 860Z…   24257   0.497   0.503  0.0462  0.0524  0.0675  0.0844  0.0545  0.107 
 2 860Z…   52344   0.490   0.510  0.0653  0.0679  0.0658  0.0576  0.0361  0.106 
 3 860Z…   29622   0.507   0.493  0.0630  0.0589  0.0708  0.0526  0.0225  0.118 
 4 860Z…   33048   0.480   0.520  0.0484  0.0642  0.0707  0.0574  0.0385  0.106 
 5 860Z…   23191   0.506   0.494  0.0815  0.0501  0.0587  0.0460  0.0569  0.160 
 6 860Z…   47130   0.491   0.509  0.0408  0.0731  0.0800  0.0833  0.0351  0.0528
 7 860Z…   11712   0.482   0.518  0.0377  0.0572  0.0839  0.0920  0.0457  0.0786
 8 860Z…   26689   0.503   0.497  0.0472  0.0463  0.0838  0.0787  0.0580  0.110 
 9 860Z…   47612   0.510   0.490  0.0458  0.0703  0.0852  0.0736  0.0583  0.0867
10 860Z…   27671   0.498   0.502  0.0475  0.0727  0.0680  0.0689  0.0619  0.0806
# … with 1,387 more rows, 7 more variables: age_35to44 <dbl>, age_45to54 <dbl>,
#   age_55to59 <dbl>, age_60to64 <dbl>, age_65to74 <dbl>, age_75to84 <dbl>,
#   age_85plus <dbl>, and abbreviated variable names ¹​poptotal, ²​gender_male,
#   ³​gender_female, ⁴​age_0to4, ⁵​age_5to9, ⁶​age_10to14, ⁷​age_15to19,
#   ⁸​age_20to24, ⁹​age_25to34

Let’s say our columns are not conveniently in order, how do we do that?

df_unordered = df %>%
    relocate(poptotal, .after=gender_female)

df_unordered

# A tibble: 1,397 × 17
   GEOID gende…¹ gende…² popto…³ age_0…⁴ age_5…⁵ age_1…⁶ age_1…⁷ age_2…⁸ age_2…⁹
   <chr>   <dbl>   <dbl>   <dbl>   <dbl>   <dbl>   <dbl>   <dbl>   <dbl>   <dbl>
 1 860Z…   12063   12194   24257    1120    1272    1637    2048    1321    2607
 2 860Z…   25624   26720   52344    3419    3552    3446    3016    1890    5534
 3 860Z…   15024   14598   29622    1866    1745    2096    1559     667    3490
 4 860Z…   15875   17173   33048    1600    2121    2336    1898    1271    3516
 5 860Z…   11742   11449   23191    1889    1163    1362    1066    1320    3714
 6 860Z…   23127   24003   47130    1925    3443    3769    3924    1654    2489
 7 860Z…    5648    6064   11712     441     670     983    1078     535     921
 8 860Z…   13431   13258   26689    1260    1235    2236    2100    1547    2943
 9 860Z…   24283   23329   47612    2180    3347    4055    3502    2777    4126
10 860Z…   13791   13880   27671    1315    2011    1883    1906    1714    2229
# … with 1,387 more rows, 7 more variables: age_35to44 <dbl>, age_45to54 <dbl>,
#   age_55to59 <dbl>, age_60to64 <dbl>, age_65to74 <dbl>, age_75to84 <dbl>,
#   age_85plus <dbl>, and abbreviated variable names ¹​gender_male,
#   ²​gender_female, ³​poptotal, ⁴​age_0to4, ⁵​age_5to9, ⁶​age_10to14, ⁷​age_15to19,
#   ⁸​age_20to24, ⁹​age_25to34

df_new = df_unordered %>%
    mutate(across(
        .cols = -c(GEOID, poptotal),
        .fns = ~ .x/poptotal
    ))

df_new

# A tibble: 1,397 × 17
   GEOID gende…¹ gende…² popto…³ age_0…⁴ age_5…⁵ age_1…⁶ age_1…⁷ age_2…⁸ age_2…⁹
   <chr>   <dbl>   <dbl>   <dbl>   <dbl>   <dbl>   <dbl>   <dbl>   <dbl>   <dbl>
 1 860Z…   0.497   0.503   24257  0.0462  0.0524  0.0675  0.0844  0.0545  0.107 
 2 860Z…   0.490   0.510   52344  0.0653  0.0679  0.0658  0.0576  0.0361  0.106 
 3 860Z…   0.507   0.493   29622  0.0630  0.0589  0.0708  0.0526  0.0225  0.118 
 4 860Z…   0.480   0.520   33048  0.0484  0.0642  0.0707  0.0574  0.0385  0.106 
 5 860Z…   0.506   0.494   23191  0.0815  0.0501  0.0587  0.0460  0.0569  0.160 
 6 860Z…   0.491   0.509   47130  0.0408  0.0731  0.0800  0.0833  0.0351  0.0528
 7 860Z…   0.482   0.518   11712  0.0377  0.0572  0.0839  0.0920  0.0457  0.0786
 8 860Z…   0.503   0.497   26689  0.0472  0.0463  0.0838  0.0787  0.0580  0.110 
 9 860Z…   0.510   0.490   47612  0.0458  0.0703  0.0852  0.0736  0.0583  0.0867
10 860Z…   0.498   0.502   27671  0.0475  0.0727  0.0680  0.0689  0.0619  0.0806
# … with 1,387 more rows, 7 more variables: age_35to44 <dbl>, age_45to54 <dbl>,
#   age_55to59 <dbl>, age_60to64 <dbl>, age_65to74 <dbl>, age_75to84 <dbl>,
#   age_85plus <dbl>, and abbreviated variable names ¹​gender_male,
#   ²​gender_female, ³​poptotal, ⁴​age_0to4, ⁵​age_5to9, ⁶​age_10to14, ⁷​age_15to19,
#   ⁸​age_20to24, ⁹​age_25to34

Alternatively,

df_new = df_unordered %>%
    mutate(across(
        .cols = c(gender_male:gender_female, age_0to4:age_85plus),
        .fns = ~ .x/poptotal
    ))

df_new

# A tibble: 1,397 × 17
   GEOID gende…¹ gende…² popto…³ age_0…⁴ age_5…⁵ age_1…⁶ age_1…⁷ age_2…⁸ age_2…⁹
   <chr>   <dbl>   <dbl>   <dbl>   <dbl>   <dbl>   <dbl>   <dbl>   <dbl>   <dbl>
 1 860Z…   0.497   0.503   24257  0.0462  0.0524  0.0675  0.0844  0.0545  0.107 
 2 860Z…   0.490   0.510   52344  0.0653  0.0679  0.0658  0.0576  0.0361  0.106 
 3 860Z…   0.507   0.493   29622  0.0630  0.0589  0.0708  0.0526  0.0225  0.118 
 4 860Z…   0.480   0.520   33048  0.0484  0.0642  0.0707  0.0574  0.0385  0.106 
 5 860Z…   0.506   0.494   23191  0.0815  0.0501  0.0587  0.0460  0.0569  0.160 
 6 860Z…   0.491   0.509   47130  0.0408  0.0731  0.0800  0.0833  0.0351  0.0528
 7 860Z…   0.482   0.518   11712  0.0377  0.0572  0.0839  0.0920  0.0457  0.0786
 8 860Z…   0.503   0.497   26689  0.0472  0.0463  0.0838  0.0787  0.0580  0.110 
 9 860Z…   0.510   0.490   47612  0.0458  0.0703  0.0852  0.0736  0.0583  0.0867
10 860Z…   0.498   0.502   27671  0.0475  0.0727  0.0680  0.0689  0.0619  0.0806
# … with 1,387 more rows, 7 more variables: age_35to44 <dbl>, age_45to54 <dbl>,
#   age_55to59 <dbl>, age_60to64 <dbl>, age_65to74 <dbl>, age_75to84 <dbl>,
#   age_85plus <dbl>, and abbreviated variable names ¹​gender_male,
#   ²​gender_female, ³​poptotal, ⁴​age_0to4, ⁵​age_5to9, ⁶​age_10to14, ⁷​age_15to19,
#   ⁸​age_20to24, ⁹​age_25to34

Let’s pretend for a moment that we’re handling thousands of columns that are not sorted neatly but are name consistently (such as our _ separator before categories),

df_new = df_unordered %>%
    mutate(across(
        .cols = contains('_'),
        .fns = ~ .x/poptotal
    ))

df_new

# A tibble: 1,397 × 17
   GEOID gende…¹ gende…² popto…³ age_0…⁴ age_5…⁵ age_1…⁶ age_1…⁷ age_2…⁸ age_2…⁹
   <chr>   <dbl>   <dbl>   <dbl>   <dbl>   <dbl>   <dbl>   <dbl>   <dbl>   <dbl>
 1 860Z…   0.497   0.503   24257  0.0462  0.0524  0.0675  0.0844  0.0545  0.107 
 2 860Z…   0.490   0.510   52344  0.0653  0.0679  0.0658  0.0576  0.0361  0.106 
 3 860Z…   0.507   0.493   29622  0.0630  0.0589  0.0708  0.0526  0.0225  0.118 
 4 860Z…   0.480   0.520   33048  0.0484  0.0642  0.0707  0.0574  0.0385  0.106 
 5 860Z…   0.506   0.494   23191  0.0815  0.0501  0.0587  0.0460  0.0569  0.160 
 6 860Z…   0.491   0.509   47130  0.0408  0.0731  0.0800  0.0833  0.0351  0.0528
 7 860Z…   0.482   0.518   11712  0.0377  0.0572  0.0839  0.0920  0.0457  0.0786
 8 860Z…   0.503   0.497   26689  0.0472  0.0463  0.0838  0.0787  0.0580  0.110 
 9 860Z…   0.510   0.490   47612  0.0458  0.0703  0.0852  0.0736  0.0583  0.0867
10 860Z…   0.498   0.502   27671  0.0475  0.0727  0.0680  0.0689  0.0619  0.0806
# … with 1,387 more rows, 7 more variables: age_35to44 <dbl>, age_45to54 <dbl>,
#   age_55to59 <dbl>, age_60to64 <dbl>, age_65to74 <dbl>, age_75to84 <dbl>,
#   age_85plus <dbl>, and abbreviated variable names ¹​gender_male,
#   ²​gender_female, ³​poptotal, ⁴​age_0to4, ⁵​age_5to9, ⁶​age_10to14, ⁷​age_15to19,
#   ⁸​age_20to24, ⁹​age_25to34

Let’s pretend that we want to convert all values to be in 1000s. We could use any of the approaches above, or…

df_new = df %>%
    mutate(across(
        .cols = where(~ is.numeric(.x)),
        .fns = ~ .x/1000
    ))

df_new

# A tibble: 1,397 × 17
   GEOID popto…¹ gende…² gende…³ age_0…⁴ age_5…⁵ age_1…⁶ age_1…⁷ age_2…⁸ age_2…⁹
   <chr>   <dbl>   <dbl>   <dbl>   <dbl>   <dbl>   <dbl>   <dbl>   <dbl>   <dbl>
 1 860Z…    24.3   12.1    12.2    1.12     1.27   1.64     2.05   1.32    2.61 
 2 860Z…    52.3   25.6    26.7    3.42     3.55   3.45     3.02   1.89    5.53 
 3 860Z…    29.6   15.0    14.6    1.87     1.74   2.10     1.56   0.667   3.49 
 4 860Z…    33.0   15.9    17.2    1.6      2.12   2.34     1.90   1.27    3.52 
 5 860Z…    23.2   11.7    11.4    1.89     1.16   1.36     1.07   1.32    3.71 
 6 860Z…    47.1   23.1    24.0    1.92     3.44   3.77     3.92   1.65    2.49 
 7 860Z…    11.7    5.65    6.06   0.441    0.67   0.983    1.08   0.535   0.921
 8 860Z…    26.7   13.4    13.3    1.26     1.24   2.24     2.1    1.55    2.94 
 9 860Z…    47.6   24.3    23.3    2.18     3.35   4.06     3.50   2.78    4.13 
10 860Z…    27.7   13.8    13.9    1.32     2.01   1.88     1.91   1.71    2.23 
# … with 1,387 more rows, 7 more variables: age_35to44 <dbl>, age_45to54 <dbl>,
#   age_55to59 <dbl>, age_60to64 <dbl>, age_65to74 <dbl>, age_75to84 <dbl>,
#   age_85plus <dbl>, and abbreviated variable names ¹​poptotal, ²​gender_male,
#   ³​gender_female, ⁴​age_0to4, ⁵​age_5to9, ⁶​age_10to14, ⁷​age_15to19,
#   ⁸​age_20to24, ⁹​age_25to34

Let’s take things up a notch. Let’s say we don’t want to directly modify the population values, but rather create new columns with proportions.

df_new = df %>%
    mutate(across(
        .cols = gender_male:age_85plus,
        .fns = ~ .x/poptotal,
        .names = '{col}_perc' # {col} refers to the original column name
    ))

df_new

# A tibble: 1,397 × 32
   GEOID popto…¹ gende…² gende…³ age_0…⁴ age_5…⁵ age_1…⁶ age_1…⁷ age_2…⁸ age_2…⁹
   <chr>   <dbl>   <dbl>   <dbl>   <dbl>   <dbl>   <dbl>   <dbl>   <dbl>   <dbl>
 1 860Z…   24257   12063   12194    1120    1272    1637    2048    1321    2607
 2 860Z…   52344   25624   26720    3419    3552    3446    3016    1890    5534
 3 860Z…   29622   15024   14598    1866    1745    2096    1559     667    3490
 4 860Z…   33048   15875   17173    1600    2121    2336    1898    1271    3516
 5 860Z…   23191   11742   11449    1889    1163    1362    1066    1320    3714
 6 860Z…   47130   23127   24003    1925    3443    3769    3924    1654    2489
 7 860Z…   11712    5648    6064     441     670     983    1078     535     921
 8 860Z…   26689   13431   13258    1260    1235    2236    2100    1547    2943
 9 860Z…   47612   24283   23329    2180    3347    4055    3502    2777    4126
10 860Z…   27671   13791   13880    1315    2011    1883    1906    1714    2229
# … with 1,387 more rows, 22 more variables: age_35to44 <dbl>,
#   age_45to54 <dbl>, age_55to59 <dbl>, age_60to64 <dbl>, age_65to74 <dbl>,
#   age_75to84 <dbl>, age_85plus <dbl>, gender_male_perc <dbl>,
#   gender_female_perc <dbl>, age_0to4_perc <dbl>, age_5to9_perc <dbl>,
#   age_10to14_perc <dbl>, age_15to19_perc <dbl>, age_20to24_perc <dbl>,
#   age_25to34_perc <dbl>, age_35to44_perc <dbl>, age_45to54_perc <dbl>,
#   age_55to59_perc <dbl>, age_60to64_perc <dbl>, age_65to74_perc <dbl>, …
…
We could have done the calculation using only age_midpts instead of using age_midpts[vars], but using the latter ensures that all elements of df_new and age_midpts are perfectly aligned (we know that they already are, but performing the step explicitly is better practice).

Finally, we calculate the averages and move them back to df_new

df_new = df_new %>%
    mutate(avgage = rowSums(df_temp))

df_new

# A tibble: 1,397 × 33
   GEOID popto…¹ gende…² gende…³ age_0…⁴ age_5…⁵ age_1…⁶ age_1…⁷ age_2…⁸ age_2…⁹
   <chr>   <dbl>   <dbl>   <dbl>   <dbl>   <dbl>   <dbl>   <dbl>   <dbl>   <dbl>
 1 860Z…   24257   12063   12194    1120    1272    1637    2048    1321    2607
 2 860Z…   52344   25624   26720    3419    3552    3446    3016    1890    5534
 3 860Z…   29622   15024   14598    1866    1745    2096    1559     667    3490
 4 860Z…   33048   15875   17173    1600    2121    2336    1898    1271    3516
 5 860Z…   23191   11742   11449    1889    1163    1362    1066    1320    3714
 6 860Z…   47130   23127   24003    1925    3443    3769    3924    1654    2489
 7 860Z…   11712    5648    6064     441     670     983    1078     535     921
 8 860Z…   26689   13431   13258    1260    1235    2236    2100    1547    2943
 9 860Z…   47612   24283   23329    2180    3347    4055    3502    2777    4126
10 860Z…   27671   13791   13880    1315    2011    1883    1906    1714    2229
# … with 1,387 more rows, 23 more variables: age_35to44 <dbl>,
#   age_45to54 <dbl>, age_55to59 <dbl>, age_60to64 <dbl>, age_65to74 <dbl>,
#   age_75to84 <dbl>, age_85plus <dbl>, gender_male_perc <dbl>,
#   gender_female_perc <dbl>, age_0to4_perc <dbl>, age_5to9_perc <dbl>,
#   age_10to14_perc <dbl>, age_15to19_perc <dbl>, age_20to24_perc <dbl>,
#   age_25to34_perc <dbl>, age_35to44_perc <dbl>, age_45to54_perc <dbl>,
#   age_55to59_perc <dbl>, age_60to64_perc <dbl>, age_65to74_perc <dbl>, …
Method 2

df_new = df %>%
    
    select(-contains('gender')) %>%
    pivot_longer(
        cols = starts_with('age'),
        values_to = 'pop',
        names_to = c('age_lower', 'age_upper'),
        names_pattern = 'age_(\\d+)[a-z]+(.*)'
    )

df_new

# A tibble: 18,161 × 5
   GEOID          poptotal age_lower age_upper   pop
   <chr>             <dbl> <chr>     <chr>     <dbl>
 1 860Z200US60002    24257 0         4          1120
 2 860Z200US60002    24257 5         9          1272
 3 860Z200US60002    24257 10        14         1637
 4 860Z200US60002    24257 15        19         2048
 5 860Z200US60002    24257 20        24         1321
 6 860Z200US60002    24257 25        34         2607
 7 860Z200US60002    24257 35        44         2496
 8 860Z200US60002    24257 45        54         4334
 9 860Z200US60002    24257 55        59         1859
10 860Z200US60002    24257 60        64         1846
# … with 18,151 more rows

df_new = df_new %>%
    
    mutate(across(
        .cols = matches('age_[a-z]{5}'),
        .fns = ~ ifelse(.x == '', 99, as.numeric(.x))
    ))

df_new

# A tibble: 18,161 × 5
   GEOID          poptotal age_lower age_upper   pop
   <chr>             <dbl>     <dbl>     <dbl> <dbl>
 1 860Z200US60002    24257         0         4  1120
 2 860Z200US60002    24257         5         9  1272
 3 860Z200US60002    24257        10        14  1637
 4 860Z200US60002    24257        15        19  2048
 5 860Z200US60002    24257        20        24  1321
 6 860Z200US60002    24257        25        34  2607
 7 860Z200US60002    24257        35        44  2496
 8 860Z200US60002    24257        45        54  4334
 9 860Z200US60002    24257        55        59  1859
10 860Z200US60002    24257        60        64  1846
# … with 18,151 more rows

df_new = df_new %>%
    
    mutate(
        perc = pop/poptotal,
        age_upper = age_upper + 1,
        age_midpt = (age_lower + age_upper)/2,
        age_avg = perc * age_midpt
    )

df_new

# A tibble: 18,161 × 8
   GEOID          poptotal age_lower age_upper   pop   perc age_midpt age_avg
   <chr>             <dbl>     <dbl>     <dbl> <dbl>  <dbl>     <dbl>   <dbl>
 1 860Z200US60002    24257         0         5  1120 0.0462       2.5   0.115
 2 860Z200US60002    24257         5        10  1272 0.0524       7.5   0.393
 3 860Z200US60002    24257        10        15  1637 0.0675      12.5   0.844
 4 860Z200US60002    24257        15        20  2048 0.0844      17.5   1.48 
 5 860Z200US60002    24257        20        25  1321 0.0545      22.5   1.23 
 6 860Z200US60002    24257        25        35  2607 0.107       30     3.22 
 7 860Z200US60002    24257        35        45  2496 0.103       40     4.12 
 8 860Z200US60002    24257        45        55  4334 0.179       50     8.93 
 9 860Z200US60002    24257        55        60  1859 0.0766      57.5   4.41 
10 860Z200US60002    24257        60        65  1846 0.0761      62.5   4.76 
# … with 18,151 more rows

df_new = df_new %>%
    
    group_by(GEOID) %>%
    summarize(avgage = sum(age_avg))

df_new

# A tibble: 1,397 × 2
   GEOID          avgage
   <chr>           <dbl>
 1 860Z200US60002   40.9
 2 860Z200US60004   41.6
 3 860Z200US60005   41.8
 4 860Z200US60007   42.2
 5 860Z200US60008   39.6
 6 860Z200US60010   43.3
 7 860Z200US60012   41.2
 8 860Z200US60013   39.5
 9 860Z200US60014   39.4
10 860Z200US60015   41.7
# … with 1,387 more rows
…
